EESchema Schematic File Version 4
EELAYER 30 0
EELAYER END
$Descr A4 11693 8268
encoding utf-8
Sheet 1 1
Title ""
Date ""
Rev ""
Comp ""
Comment1 ""
Comment2 ""
Comment3 ""
Comment4 ""
$EndDescr
$Comp
L MCU_ST_STM32F0:STM32F030K6Tx U?
U 1 1 62A1F080
P 6000 4000
F 0 "U?" H 5950 2911 50  0000 C CNN
F 1 "STM32F030K6Tx" H 5950 2820 50  0000 C CNN
F 2 "Package_QFP:LQFP-32_7x7mm_P0.8mm" H 5500 3100 50  0001 R CNN
F 3 "http://www.st.com/st-web-ui/static/active/en/resource/technical/document/datasheet/DM00088500.pdf" H 6000 4000 50  0001 C CNN
	1    6000 4000
	1    0    0    -1  
$EndComp
$Comp
L 74xGxx:74AHC1G04 U?
U 1 1 62A25BE6
P 8450 3250
F 0 "U?" H 8425 3517 50  0000 C CNN
F 1 "74AHC1G04" H 8425 3426 50  0000 C CNN
F 2 "Package_TO_SOT_SMD:SOT-23-5" H 8450 3250 50  0001 C CNN
F 3 "http://www.ti.com/lit/sg/scyt129e/scyt129e.pdf" H 8450 3250 50  0001 C CNN
	1    8450 3250
	1    0    0    -1  
$EndComp
$Comp
L 74xGxx:74AHC1G04 U?
U 1 1 62A2694F
P 8450 3800
F 0 "U?" H 8425 4067 50  0000 C CNN
F 1 "74AHC1G04" H 8425 3976 50  0000 C CNN
F 2 "Package_TO_SOT_SMD:SOT-23-5" H 8450 3800 50  0001 C CNN
F 3 "http://www.ti.com/lit/sg/scyt129e/scyt129e.pdf" H 8450 3800 50  0001 C CNN
	1    8450 3800
	1    0    0    -1  
$EndComp
$Comp
L 74xGxx:74AHC1G04 U?
U 1 1 62A26FDA
P 8450 4300
F 0 "U?" H 8425 4567 50  0000 C CNN
F 1 "74AHC1G04" H 8425 4476 50  0000 C CNN
F 2 "Package_TO_SOT_SMD:SOT-23-5" H 8450 4300 50  0001 C CNN
F 3 "http://www.ti.com/lit/sg/scyt129e/scyt129e.pdf" H 8450 4300 50  0001 C CNN
	1    8450 4300
	1    0    0    -1  
$EndComp
$Comp
L 74xGxx:74AHC1G04 U?
U 1 1 62A275D2
P 8450 4750
F 0 "U?" H 8425 5017 50  0000 C CNN
F 1 "74AHC1G04" H 8425 4926 50  0000 C CNN
F 2 "Package_TO_SOT_SMD:SOT-23-5" H 8450 4750 50  0001 C CNN
F 3 "http://www.ti.com/lit/sg/scyt129e/scyt129e.pdf" H 8450 4750 50  0001 C CNN
	1    8450 4750
	1    0    0    -1  
$EndComp
Wire Wire Line
	6500 4100 7550 4100
Wire Wire Line
	7550 4100 7550 3250
Wire Wire Line
	7550 3250 8000 3250
Wire Wire Line
	6500 4200 7700 4200
Wire Wire Line
	7700 4200 7700 3800
Wire Wire Line
	7700 3800 8000 3800
Wire Wire Line
	6500 4400 7550 4400
Wire Wire Line
	7550 4400 7550 4750
Wire Wire Line
	7550 4750 8000 4750
Wire Wire Line
	8000 3250 8000 2900
Wire Wire Line
	8000 2900 8850 2900
Connection ~ 8000 3250
Wire Wire Line
	8000 3250 8150 3250
Wire Wire Line
	8700 3250 8850 3250
Wire Wire Line
	8000 3800 8000 3550
Wire Wire Line
	8000 3550 8850 3550
Connection ~ 8000 3800
Wire Wire Line
	8000 3800 8150 3800
Wire Wire Line
	8000 4300 8000 4050
Wire Wire Line
	8000 4050 8850 4050
Connection ~ 8000 4300
Wire Wire Line
	8000 4300 8150 4300
Wire Wire Line
	8000 4750 8000 4500
Wire Wire Line
	8000 4500 8850 4500
Connection ~ 8000 4750
Wire Wire Line
	8000 4750 8150 4750
Wire Wire Line
	8700 3800 8850 3800
Wire Wire Line
	8700 4300 8850 4300
Wire Wire Line
	8700 4750 8850 4750
$Comp
L Mechanical:MountingHole_Pad H?
U 1 1 62A2A770
P 9300 2900
F 0 "H?" V 9254 3050 50  0000 L CNN
F 1 "MountingHole_Pad" V 9345 3050 50  0000 L CNN
F 2 "" H 9300 2900 50  0001 C CNN
F 3 "~" H 9300 2900 50  0001 C CNN
	1    9300 2900
	0    1    1    0   
$EndComp
$Comp
L Mechanical:MountingHole_Pad H?
U 1 1 62A2AD8D
P 9300 3250
F 0 "H?" V 9254 3400 50  0000 L CNN
F 1 "MountingHole_Pad" V 9345 3400 50  0000 L CNN
F 2 "" H 9300 3250 50  0001 C CNN
F 3 "~" H 9300 3250 50  0001 C CNN
	1    9300 3250
	0    1    1    0   
$EndComp
$Comp
L Mechanical:MountingHole_Pad H?
U 1 1 62A2B037
P 9300 3550
F 0 "H?" V 9254 3700 50  0000 L CNN
F 1 "MountingHole_Pad" V 9345 3700 50  0000 L CNN
F 2 "" H 9300 3550 50  0001 C CNN
F 3 "~" H 9300 3550 50  0001 C CNN
	1    9300 3550
	0    1    1    0   
$EndComp
$Comp
L Mechanical:MountingHole_Pad H?
U 1 1 62A2B230
P 9300 3800
F 0 "H?" V 9254 3950 50  0000 L CNN
F 1 "MountingHole_Pad" V 9345 3950 50  0000 L CNN
F 2 "" H 9300 3800 50  0001 C CNN
F 3 "~" H 9300 3800 50  0001 C CNN
	1    9300 3800
	0    1    1    0   
$EndComp
$Comp
L Mechanical:MountingHole_Pad H?
U 1 1 62A2B3DB
P 9300 4050
F 0 "H?" V 9254 4200 50  0000 L CNN
F 1 "MountingHole_Pad" V 9345 4200 50  0000 L CNN
F 2 "" H 9300 4050 50  0001 C CNN
F 3 "~" H 9300 4050 50  0001 C CNN
	1    9300 4050
	0    1    1    0   
$EndComp
$Comp
L Mechanical:MountingHole_Pad H?
U 1 1 62A2B654
P 9300 4300
F 0 "H?" V 9254 4450 50  0000 L CNN
F 1 "MountingHole_Pad" V 9345 4450 50  0000 L CNN
F 2 "" H 9300 4300 50  0001 C CNN
F 3 "~" H 9300 4300 50  0001 C CNN
	1    9300 4300
	0    1    1    0   
$EndComp
$Comp
L Mechanical:MountingHole_Pad H?
U 1 1 62A2B86D
P 9300 4500
F 0 "H?" V 9254 4650 50  0000 L CNN
F 1 "MountingHole_Pad" V 9345 4650 50  0000 L CNN
F 2 "" H 9300 4500 50  0001 C CNN
F 3 "~" H 9300 4500 50  0001 C CNN
	1    9300 4500
	0    1    1    0   
$EndComp
$Comp
L Mechanical:MountingHole_Pad H?
U 1 1 62A2BA3D
P 9300 4750
F 0 "H?" V 9254 4900 50  0000 L CNN
F 1 "MountingHole_Pad" V 9345 4900 50  0000 L CNN
F 2 "" H 9300 4750 50  0001 C CNN
F 3 "~" H 9300 4750 50  0001 C CNN
	1    9300 4750
	0    1    1    0   
$EndComp
$Comp
L Connector_Generic:Conn_02x05_Odd_Even J?
U 1 1 62A2FF9D
P 2350 5900
F 0 "J?" H 2400 6317 50  0000 C CNN
F 1 "Conn_02x05_Odd_Even" H 2400 6226 50  0000 C CNN
F 2 "" H 2350 5900 50  0001 C CNN
F 3 "~" H 2350 5900 50  0001 C CNN
	1    2350 5900
	1    0    0    -1  
$EndComp
Wire Wire Line
	2650 5800 2650 5700
Connection ~ 2650 5700
Wire Wire Line
	2650 5700 2650 5250
Wire Wire Line
	2150 5800 2150 5700
Connection ~ 2150 5700
Wire Wire Line
	2150 5700 2150 5250
Wire Wire Line
	2650 6000 2650 6100
Connection ~ 2650 6100
Wire Wire Line
	2650 6100 2650 6400
Wire Wire Line
	2150 6000 2150 6100
Connection ~ 2150 6100
Wire Wire Line
	2150 6100 2150 6400
Wire Wire Line
	2150 5900 1850 5900
Wire Wire Line
	2650 5900 2950 5900
$Comp
L power:GND #PWR?
U 1 1 62A333DA
P 2150 6400
F 0 "#PWR?" H 2150 6150 50  0001 C CNN
F 1 "GND" H 2155 6227 50  0000 C CNN
F 2 "" H 2150 6400 50  0001 C CNN
F 3 "" H 2150 6400 50  0001 C CNN
	1    2150 6400
	1    0    0    -1  
$EndComp
$Comp
L power:GND #PWR?
U 1 1 62A336C0
P 2650 6400
F 0 "#PWR?" H 2650 6150 50  0001 C CNN
F 1 "GND" H 2655 6227 50  0000 C CNN
F 2 "" H 2650 6400 50  0001 C CNN
F 3 "" H 2650 6400 50  0001 C CNN
	1    2650 6400
	1    0    0    -1  
$EndComp
$Comp
L power:+3.3V #PWR?
U 1 1 62A33C28
P 2150 5250
F 0 "#PWR?" H 2150 5100 50  0001 C CNN
F 1 "+3.3V" H 2165 5423 50  0000 C CNN
F 2 "" H 2150 5250 50  0001 C CNN
F 3 "" H 2150 5250 50  0001 C CNN
	1    2150 5250
	1    0    0    -1  
$EndComp
$Comp
L power:+3.3V #PWR?
U 1 1 62A33FC3
P 2650 5250
F 0 "#PWR?" H 2650 5100 50  0001 C CNN
F 1 "+3.3V" H 2665 5423 50  0000 C CNN
F 2 "" H 2650 5250 50  0001 C CNN
F 3 "" H 2650 5250 50  0001 C CNN
	1    2650 5250
	1    0    0    -1  
$EndComp
Text Label 1850 5900 0    50   ~ 0
i2c_sda
Text Label 2950 5900 0    50   ~ 0
i2c_scl
Text Label 4150 4800 2    50   ~ 0
i2c_sda
Text Label 4100 4700 2    50   ~ 0
i2c_scl
Wire Wire Line
	5400 4700 4100 4700
Wire Wire Line
	5400 4800 4150 4800
$Comp
L kicad_Library:PROGRAMMATOR xp?
U 1 1 62A36031
P 2850 2950
F 0 "xp?" H 2525 3925 50  0000 C CNN
F 1 "PROGRAMMATOR" H 2525 3834 50  0000 C CNN
F 2 "Connector_IDC:IDC-Header_2x05_P2.54mm_Vertical" H 2500 3850 50  0001 C CNN
F 3 "" H 2500 3850 50  0001 C CNN
	1    2850 2950
	1    0    0    -1  
$EndComp
$Comp
L power:+3.3V #PWR?
U 1 1 62A37FC0
P 3100 1850
F 0 "#PWR?" H 3100 1700 50  0001 C CNN
F 1 "+3.3V" H 3115 2023 50  0000 C CNN
F 2 "" H 3100 1850 50  0001 C CNN
F 3 "" H 3100 1850 50  0001 C CNN
	1    3100 1850
	1    0    0    -1  
$EndComp
$Comp
L power:GND #PWR?
U 1 1 62A383E8
P 1950 2800
F 0 "#PWR?" H 1950 2550 50  0001 C CNN
F 1 "GND" H 1955 2627 50  0000 C CNN
F 2 "" H 1950 2800 50  0001 C CNN
F 3 "" H 1950 2800 50  0001 C CNN
	1    1950 2800
	1    0    0    -1  
$EndComp
Text Label 3250 2500 0    50   ~ 0
swdio
Text Label 1500 2500 0    50   ~ 0
swd_clk
Text Label 6850 4700 0    50   ~ 0
swd_clk
Text Label 6850 4600 0    50   ~ 0
swdio
Wire Wire Line
	6850 4600 6500 4600
Wire Wire Line
	6850 4700 6500 4700
Wire Wire Line
	3250 2500 3000 2500
Wire Wire Line
	2050 2500 1500 2500
Wire Wire Line
	2050 2600 1950 2600
Wire Wire Line
	1950 2600 1950 2800
Wire Wire Line
	1950 2600 1950 2200
Wire Wire Line
	1950 2200 2050 2200
Connection ~ 1950 2600
Wire Wire Line
	3000 2200 3100 2200
Wire Wire Line
	3100 2200 3100 1850
Text Label 3850 3500 0    50   ~ 0
boot
Text Label 3250 2300 0    50   ~ 0
boot
Wire Wire Line
	3250 2300 3000 2300
Text Label 3850 3300 0    50   ~ 0
reset
Text Label 1500 2300 0    50   ~ 0
reset
Wire Wire Line
	1500 2300 2050 2300
$Comp
L power:+3.3V #PWR?
U 1 1 62A43B6F
P 5900 2800
F 0 "#PWR?" H 5900 2650 50  0001 C CNN
F 1 "+3.3V" H 5915 2973 50  0000 C CNN
F 2 "" H 5900 2800 50  0001 C CNN
F 3 "" H 5900 2800 50  0001 C CNN
	1    5900 2800
	1    0    0    -1  
$EndComp
$Comp
L power:+3.3V #PWR?
U 1 1 62A47EF1
P 6000 2550
F 0 "#PWR?" H 6000 2400 50  0001 C CNN
F 1 "+3.3V" H 6015 2723 50  0000 C CNN
F 2 "" H 6000 2550 50  0001 C CNN
F 3 "" H 6000 2550 50  0001 C CNN
	1    6000 2550
	1    0    0    -1  
$EndComp
$Comp
L power:+3.3V #PWR?
U 1 1 62A482E4
P 6100 2800
F 0 "#PWR?" H 6100 2650 50  0001 C CNN
F 1 "+3.3V" H 6115 2973 50  0000 C CNN
F 2 "" H 6100 2800 50  0001 C CNN
F 3 "" H 6100 2800 50  0001 C CNN
	1    6100 2800
	1    0    0    -1  
$EndComp
Wire Wire Line
	6100 2800 6100 3100
Wire Wire Line
	6000 2550 6000 3100
Wire Wire Line
	5900 2800 5900 3100
$Comp
L power:GND #PWR?
U 1 1 62A4C24F
P 6000 5650
F 0 "#PWR?" H 6000 5400 50  0001 C CNN
F 1 "GND" H 6005 5477 50  0000 C CNN
F 2 "" H 6000 5650 50  0001 C CNN
F 3 "" H 6000 5650 50  0001 C CNN
	1    6000 5650
	1    0    0    -1  
$EndComp
Wire Wire Line
	5900 5400 5900 5000
Wire Wire Line
	6000 5000 6000 5650
$Comp
L Device:LED D?
U 1 1 62A4EE87
P 4000 3900
F 0 "D?" H 3993 4117 50  0000 C CNN
F 1 "LED" H 3993 4026 50  0000 C CNN
F 2 "" H 4000 3900 50  0001 C CNN
F 3 "~" H 4000 3900 50  0001 C CNN
	1    4000 3900
	1    0    0    -1  
$EndComp
$Comp
L Device:R R?
U 1 1 62A501A2
P 4550 3900
F 0 "R?" V 4343 3900 50  0000 C CNN
F 1 "R" V 4434 3900 50  0000 C CNN
F 2 "Resistor_SMD:R_0603_1608Metric" V 4480 3900 50  0001 C CNN
F 3 "~" H 4550 3900 50  0001 C CNN
	1    4550 3900
	0    1    1    0   
$EndComp
Wire Wire Line
	3850 3900 3550 3900
$Comp
L power:GND #PWR?
U 1 1 62A546E8
P 3550 3900
F 0 "#PWR?" H 3550 3650 50  0001 C CNN
F 1 "GND" H 3555 3727 50  0000 C CNN
F 2 "" H 3550 3900 50  0001 C CNN
F 3 "" H 3550 3900 50  0001 C CNN
	1    3550 3900
	1    0    0    -1  
$EndComp
Text Label 6800 3500 0    50   ~ 0
tx1
Text Label 6800 3600 0    50   ~ 0
rx1
Wire Wire Line
	6800 3500 6500 3500
Wire Wire Line
	6800 3600 6500 3600
Text Label 3250 2400 0    50   ~ 0
tx1
Text Label 1550 2400 0    50   ~ 0
rx1
Wire Wire Line
	1550 2400 2050 2400
Wire Wire Line
	3000 2400 3250 2400
Text Notes 9200 2500 0    50   ~ 0
digital caliper scale need to put here
Text Label 3850 4300 0    50   ~ 0
analog_in
Wire Wire Line
	5400 4300 3850 4300
Text Label 7250 5650 0    50   ~ 0
analog_in
$Comp
L Mechanical:MountingHole_Pad H?
U 1 1 62A620E5
P 9300 5650
F 0 "H?" V 9254 5800 50  0000 L CNN
F 1 "MountingHole_Pad" V 9345 5800 50  0000 L CNN
F 2 "" H 9300 5650 50  0001 C CNN
F 3 "~" H 9300 5650 50  0001 C CNN
	1    9300 5650
	0    1    1    0   
$EndComp
$Comp
L Device:C C?
U 1 1 62A62932
P 5250 1300
F 0 "C?" H 5365 1346 50  0000 L CNN
F 1 "C" H 5365 1255 50  0000 L CNN
F 2 "" H 5288 1150 50  0001 C CNN
F 3 "~" H 5250 1300 50  0001 C CNN
	1    5250 1300
	1    0    0    -1  
$EndComp
$Comp
L Device:CP C?
U 1 1 62A632B3
P 2150 4500
F 0 "C?" H 2268 4546 50  0000 L CNN
F 1 "CP" H 2268 4455 50  0000 L CNN
F 2 "" H 2188 4350 50  0001 C CNN
F 3 "~" H 2150 4500 50  0001 C CNN
	1    2150 4500
	1    0    0    -1  
$EndComp
$Comp
L power:+3.3V #PWR?
U 1 1 62A64BA0
P 2150 4350
F 0 "#PWR?" H 2150 4200 50  0001 C CNN
F 1 "+3.3V" H 2165 4523 50  0000 C CNN
F 2 "" H 2150 4350 50  0001 C CNN
F 3 "" H 2150 4350 50  0001 C CNN
	1    2150 4350
	1    0    0    -1  
$EndComp
$Comp
L power:GND #PWR?
U 1 1 62A64E94
P 2150 4650
F 0 "#PWR?" H 2150 4400 50  0001 C CNN
F 1 "GND" H 2155 4477 50  0000 C CNN
F 2 "" H 2150 4650 50  0001 C CNN
F 3 "" H 2150 4650 50  0001 C CNN
	1    2150 4650
	1    0    0    -1  
$EndComp
$Comp
L power:GND #PWR?
U 1 1 62A672AD
P 5250 1450
F 0 "#PWR?" H 5250 1200 50  0001 C CNN
F 1 "GND" H 5255 1277 50  0000 C CNN
F 2 "" H 5250 1450 50  0001 C CNN
F 3 "" H 5250 1450 50  0001 C CNN
	1    5250 1450
	1    0    0    -1  
$EndComp
$Comp
L power:+3.3V #PWR?
U 1 1 62A67A00
P 5250 1150
F 0 "#PWR?" H 5250 1000 50  0001 C CNN
F 1 "+3.3V" H 5265 1323 50  0000 C CNN
F 2 "" H 5250 1150 50  0001 C CNN
F 3 "" H 5250 1150 50  0001 C CNN
	1    5250 1150
	1    0    0    -1  
$EndComp
$Comp
L Device:C C?
U 1 1 62A6A4A2
P 5800 1300
F 0 "C?" H 5915 1346 50  0000 L CNN
F 1 "C" H 5915 1255 50  0000 L CNN
F 2 "" H 5838 1150 50  0001 C CNN
F 3 "~" H 5800 1300 50  0001 C CNN
	1    5800 1300
	1    0    0    -1  
$EndComp
$Comp
L power:GND #PWR?
U 1 1 62A6A4A8
P 5800 1450
F 0 "#PWR?" H 5800 1200 50  0001 C CNN
F 1 "GND" H 5805 1277 50  0000 C CNN
F 2 "" H 5800 1450 50  0001 C CNN
F 3 "" H 5800 1450 50  0001 C CNN
	1    5800 1450
	1    0    0    -1  
$EndComp
$Comp
L power:+3.3V #PWR?
U 1 1 62A6A4AE
P 5800 1150
F 0 "#PWR?" H 5800 1000 50  0001 C CNN
F 1 "+3.3V" H 5815 1323 50  0000 C CNN
F 2 "" H 5800 1150 50  0001 C CNN
F 3 "" H 5800 1150 50  0001 C CNN
	1    5800 1150
	1    0    0    -1  
$EndComp
$Comp
L Device:C C?
U 1 1 62A6C33F
P 6300 1300
F 0 "C?" H 6415 1346 50  0000 L CNN
F 1 "C" H 6415 1255 50  0000 L CNN
F 2 "" H 6338 1150 50  0001 C CNN
F 3 "~" H 6300 1300 50  0001 C CNN
	1    6300 1300
	1    0    0    -1  
$EndComp
$Comp
L power:GND #PWR?
U 1 1 62A6C345
P 6300 1450
F 0 "#PWR?" H 6300 1200 50  0001 C CNN
F 1 "GND" H 6305 1277 50  0000 C CNN
F 2 "" H 6300 1450 50  0001 C CNN
F 3 "" H 6300 1450 50  0001 C CNN
	1    6300 1450
	1    0    0    -1  
$EndComp
$Comp
L power:+3.3V #PWR?
U 1 1 62A6C34B
P 6300 1150
F 0 "#PWR?" H 6300 1000 50  0001 C CNN
F 1 "+3.3V" H 6315 1323 50  0000 C CNN
F 2 "" H 6300 1150 50  0001 C CNN
F 3 "" H 6300 1150 50  0001 C CNN
	1    6300 1150
	1    0    0    -1  
$EndComp
$Comp
L Device:C C?
U 1 1 62A6E5F7
P 7750 1300
F 0 "C?" H 7865 1346 50  0000 L CNN
F 1 "C" H 7865 1255 50  0000 L CNN
F 2 "" H 7788 1150 50  0001 C CNN
F 3 "~" H 7750 1300 50  0001 C CNN
	1    7750 1300
	1    0    0    -1  
$EndComp
$Comp
L power:GND #PWR?
U 1 1 62A6E5FD
P 7750 1450
F 0 "#PWR?" H 7750 1200 50  0001 C CNN
F 1 "GND" H 7755 1277 50  0000 C CNN
F 2 "" H 7750 1450 50  0001 C CNN
F 3 "" H 7750 1450 50  0001 C CNN
	1    7750 1450
	1    0    0    -1  
$EndComp
$Comp
L power:+3.3V #PWR?
U 1 1 62A6E603
P 7750 1150
F 0 "#PWR?" H 7750 1000 50  0001 C CNN
F 1 "+3.3V" H 7765 1323 50  0000 C CNN
F 2 "" H 7750 1150 50  0001 C CNN
F 3 "" H 7750 1150 50  0001 C CNN
	1    7750 1150
	1    0    0    -1  
$EndComp
$Comp
L Device:C C?
U 1 1 62A7039A
P 8150 1300
F 0 "C?" H 8265 1346 50  0000 L CNN
F 1 "C" H 8265 1255 50  0000 L CNN
F 2 "" H 8188 1150 50  0001 C CNN
F 3 "~" H 8150 1300 50  0001 C CNN
	1    8150 1300
	1    0    0    -1  
$EndComp
$Comp
L power:GND #PWR?
U 1 1 62A703A0
P 8150 1450
F 0 "#PWR?" H 8150 1200 50  0001 C CNN
F 1 "GND" H 8155 1277 50  0000 C CNN
F 2 "" H 8150 1450 50  0001 C CNN
F 3 "" H 8150 1450 50  0001 C CNN
	1    8150 1450
	1    0    0    -1  
$EndComp
$Comp
L power:+3.3V #PWR?
U 1 1 62A703A6
P 8150 1150
F 0 "#PWR?" H 8150 1000 50  0001 C CNN
F 1 "+3.3V" H 8165 1323 50  0000 C CNN
F 2 "" H 8150 1150 50  0001 C CNN
F 3 "" H 8150 1150 50  0001 C CNN
	1    8150 1150
	1    0    0    -1  
$EndComp
$Comp
L Device:C C?
U 1 1 62A7212C
P 8550 1300
F 0 "C?" H 8665 1346 50  0000 L CNN
F 1 "C" H 8665 1255 50  0000 L CNN
F 2 "" H 8588 1150 50  0001 C CNN
F 3 "~" H 8550 1300 50  0001 C CNN
	1    8550 1300
	1    0    0    -1  
$EndComp
$Comp
L power:GND #PWR?
U 1 1 62A72132
P 8550 1450
F 0 "#PWR?" H 8550 1200 50  0001 C CNN
F 1 "GND" H 8555 1277 50  0000 C CNN
F 2 "" H 8550 1450 50  0001 C CNN
F 3 "" H 8550 1450 50  0001 C CNN
	1    8550 1450
	1    0    0    -1  
$EndComp
$Comp
L power:+3.3V #PWR?
U 1 1 62A72138
P 8550 1150
F 0 "#PWR?" H 8550 1000 50  0001 C CNN
F 1 "+3.3V" H 8565 1323 50  0000 C CNN
F 2 "" H 8550 1150 50  0001 C CNN
F 3 "" H 8550 1150 50  0001 C CNN
	1    8550 1150
	1    0    0    -1  
$EndComp
$Comp
L Device:C C?
U 1 1 62A74192
P 8950 1300
F 0 "C?" H 9065 1346 50  0000 L CNN
F 1 "C" H 9065 1255 50  0000 L CNN
F 2 "" H 8988 1150 50  0001 C CNN
F 3 "~" H 8950 1300 50  0001 C CNN
	1    8950 1300
	1    0    0    -1  
$EndComp
$Comp
L power:GND #PWR?
U 1 1 62A74198
P 8950 1450
F 0 "#PWR?" H 8950 1200 50  0001 C CNN
F 1 "GND" H 8955 1277 50  0000 C CNN
F 2 "" H 8950 1450 50  0001 C CNN
F 3 "" H 8950 1450 50  0001 C CNN
	1    8950 1450
	1    0    0    -1  
$EndComp
$Comp
L power:+3.3V #PWR?
U 1 1 62A7419E
P 8950 1150
F 0 "#PWR?" H 8950 1000 50  0001 C CNN
F 1 "+3.3V" H 8965 1323 50  0000 C CNN
F 2 "" H 8950 1150 50  0001 C CNN
F 3 "" H 8950 1150 50  0001 C CNN
	1    8950 1150
	1    0    0    -1  
$EndComp
$Comp
L Device:C C?
U 1 1 62A7594C
P 8250 5900
F 0 "C?" H 8365 5946 50  0000 L CNN
F 1 "C" H 8365 5855 50  0000 L CNN
F 2 "" H 8288 5750 50  0001 C CNN
F 3 "~" H 8250 5900 50  0001 C CNN
	1    8250 5900
	1    0    0    -1  
$EndComp
$Comp
L Device:R R?
U 1 1 62A7602D
P 7750 5650
F 0 "R?" V 7543 5650 50  0000 C CNN
F 1 "R" V 7634 5650 50  0000 C CNN
F 2 "Resistor_SMD:R_0603_1608Metric" V 7680 5650 50  0001 C CNN
F 3 "~" H 7750 5650 50  0001 C CNN
	1    7750 5650
	0    1    1    0   
$EndComp
$Comp
L power:GND #PWR?
U 1 1 62A76483
P 8250 6050
F 0 "#PWR?" H 8250 5800 50  0001 C CNN
F 1 "GND" H 8255 5877 50  0000 C CNN
F 2 "" H 8250 6050 50  0001 C CNN
F 3 "" H 8250 6050 50  0001 C CNN
	1    8250 6050
	1    0    0    -1  
$EndComp
Wire Wire Line
	7900 5650 8250 5650
Wire Wire Line
	8250 5750 8250 5650
Connection ~ 8250 5650
Wire Wire Line
	8250 5650 9200 5650
Wire Wire Line
	7600 5650 7250 5650
$Comp
L Device:C C?
U 1 1 62A7E4F2
P 2600 4500
F 0 "C?" H 2715 4546 50  0000 L CNN
F 1 "C" H 2715 4455 50  0000 L CNN
F 2 "" H 2638 4350 50  0001 C CNN
F 3 "~" H 2600 4500 50  0001 C CNN
	1    2600 4500
	1    0    0    -1  
$EndComp
$Comp
L power:GND #PWR?
U 1 1 62A7E4F8
P 2600 4650
F 0 "#PWR?" H 2600 4400 50  0001 C CNN
F 1 "GND" H 2605 4477 50  0000 C CNN
F 2 "" H 2600 4650 50  0001 C CNN
F 3 "" H 2600 4650 50  0001 C CNN
	1    2600 4650
	1    0    0    -1  
$EndComp
$Comp
L power:+3.3V #PWR?
U 1 1 62A7E4FE
P 2600 4350
F 0 "#PWR?" H 2600 4200 50  0001 C CNN
F 1 "+3.3V" H 2615 4523 50  0000 C CNN
F 2 "" H 2600 4350 50  0001 C CNN
F 3 "" H 2600 4350 50  0001 C CNN
	1    2600 4350
	1    0    0    -1  
$EndComp
$Comp
L Device:R R?
U 1 1 62A872C6
P 5200 5450
F 0 "R?" H 5130 5404 50  0000 R CNN
F 1 "R" H 5130 5495 50  0000 R CNN
F 2 "Resistor_SMD:R_0603_1608Metric" V 5130 5450 50  0001 C CNN
F 3 "~" H 5200 5450 50  0001 C CNN
	1    5200 5450
	-1   0    0    1   
$EndComp
$Comp
L power:GND #PWR?
U 1 1 62A4BDB9
P 5900 5400
F 0 "#PWR?" H 5900 5150 50  0001 C CNN
F 1 "GND" H 5905 5227 50  0000 C CNN
F 2 "" H 5900 5400 50  0001 C CNN
F 3 "" H 5900 5400 50  0001 C CNN
	1    5900 5400
	1    0    0    -1  
$EndComp
$Comp
L power:GND #PWR?
U 1 1 62A892FB
P 5200 5600
F 0 "#PWR?" H 5200 5350 50  0001 C CNN
F 1 "GND" H 5205 5427 50  0000 C CNN
F 2 "" H 5200 5600 50  0001 C CNN
F 3 "" H 5200 5600 50  0001 C CNN
	1    5200 5600
	1    0    0    -1  
$EndComp
$Comp
L Device:R R?
U 1 1 62A89748
P 4850 2900
F 0 "R?" H 4780 2854 50  0000 R CNN
F 1 "R" H 4780 2945 50  0000 R CNN
F 2 "Resistor_SMD:R_0603_1608Metric" V 4780 2900 50  0001 C CNN
F 3 "~" H 4850 2900 50  0001 C CNN
	1    4850 2900
	-1   0    0    1   
$EndComp
$Comp
L Device:C C?
U 1 1 62A8A146
P 4850 5450
F 0 "C?" H 4965 5496 50  0000 L CNN
F 1 "C" H 4965 5405 50  0000 L CNN
F 2 "" H 4888 5300 50  0001 C CNN
F 3 "~" H 4850 5450 50  0001 C CNN
	1    4850 5450
	1    0    0    -1  
$EndComp
$Comp
L power:GND #PWR?
U 1 1 62A8A677
P 4850 5600
F 0 "#PWR?" H 4850 5350 50  0001 C CNN
F 1 "GND" H 4855 5427 50  0000 C CNN
F 2 "" H 4850 5600 50  0001 C CNN
F 3 "" H 4850 5600 50  0001 C CNN
	1    4850 5600
	1    0    0    -1  
$EndComp
$Comp
L power:+3.3V #PWR?
U 1 1 62A8ACAA
P 4850 2700
F 0 "#PWR?" H 4850 2550 50  0001 C CNN
F 1 "+3.3V" H 4865 2873 50  0000 C CNN
F 2 "" H 4850 2700 50  0001 C CNN
F 3 "" H 4850 2700 50  0001 C CNN
	1    4850 2700
	1    0    0    -1  
$EndComp
Wire Wire Line
	4850 2700 4850 2750
Wire Wire Line
	3850 3500 5200 3500
Wire Wire Line
	5200 5300 5200 3500
Connection ~ 5200 3500
Wire Wire Line
	5200 3500 5400 3500
Wire Wire Line
	4150 3900 4400 3900
Wire Wire Line
	4850 3300 4850 3050
Connection ~ 4850 3300
Wire Wire Line
	4850 3300 5400 3300
Wire Wire Line
	3850 3300 4850 3300
Wire Wire Line
	4850 3300 4850 5300
Wire Wire Line
	4700 3900 5400 3900
$Comp
L Device:R R?
U 1 1 62ABC44C
P 9000 2900
F 0 "R?" V 8793 2900 50  0000 C CNN
F 1 "R" V 8884 2900 50  0000 C CNN
F 2 "Resistor_SMD:R_0603_1608Metric" V 8930 2900 50  0001 C CNN
F 3 "~" H 9000 2900 50  0001 C CNN
	1    9000 2900
	0    1    1    0   
$EndComp
Wire Wire Line
	9150 2900 9200 2900
$Comp
L Device:R R?
U 1 1 62ABC978
P 9000 3250
F 0 "R?" V 8793 3250 50  0000 C CNN
F 1 "R" V 8884 3250 50  0000 C CNN
F 2 "Resistor_SMD:R_0603_1608Metric" V 8930 3250 50  0001 C CNN
F 3 "~" H 9000 3250 50  0001 C CNN
	1    9000 3250
	0    1    1    0   
$EndComp
Wire Wire Line
	9150 3250 9200 3250
$Comp
L Device:R R?
U 1 1 62ABCC89
P 9000 3550
F 0 "R?" V 8793 3550 50  0000 C CNN
F 1 "R" V 8884 3550 50  0000 C CNN
F 2 "Resistor_SMD:R_0603_1608Metric" V 8930 3550 50  0001 C CNN
F 3 "~" H 9000 3550 50  0001 C CNN
	1    9000 3550
	0    1    1    0   
$EndComp
Wire Wire Line
	9150 3550 9200 3550
$Comp
L Device:R R?
U 1 1 62ABCECA
P 9000 3800
F 0 "R?" V 8793 3800 50  0000 C CNN
F 1 "R" V 8884 3800 50  0000 C CNN
F 2 "Resistor_SMD:R_0603_1608Metric" V 8930 3800 50  0001 C CNN
F 3 "~" H 9000 3800 50  0001 C CNN
	1    9000 3800
	0    1    1    0   
$EndComp
Wire Wire Line
	9150 3800 9200 3800
$Comp
L Device:R R?
U 1 1 62ABD04E
P 9000 4050
F 0 "R?" V 8793 4050 50  0000 C CNN
F 1 "R" V 8884 4050 50  0000 C CNN
F 2 "Resistor_SMD:R_0603_1608Metric" V 8930 4050 50  0001 C CNN
F 3 "~" H 9000 4050 50  0001 C CNN
	1    9000 4050
	0    1    1    0   
$EndComp
Wire Wire Line
	9150 4050 9200 4050
$Comp
L Device:R R?
U 1 1 62ABD3C1
P 9000 4300
F 0 "R?" V 8793 4300 50  0000 C CNN
F 1 "R" V 8884 4300 50  0000 C CNN
F 2 "Resistor_SMD:R_0603_1608Metric" V 8930 4300 50  0001 C CNN
F 3 "~" H 9000 4300 50  0001 C CNN
	1    9000 4300
	0    1    1    0   
$EndComp
Wire Wire Line
	9150 4300 9200 4300
$Comp
L Device:R R?
U 1 1 62ABD6AC
P 9000 4500
F 0 "R?" V 8793 4500 50  0000 C CNN
F 1 "R" V 8884 4500 50  0000 C CNN
F 2 "Resistor_SMD:R_0603_1608Metric" V 8930 4500 50  0001 C CNN
F 3 "~" H 9000 4500 50  0001 C CNN
	1    9000 4500
	0    1    1    0   
$EndComp
Wire Wire Line
	9150 4500 9200 4500
$Comp
L Device:R R?
U 1 1 62ABD92B
P 9000 4750
F 0 "R?" V 8793 4750 50  0000 C CNN
F 1 "R" V 8884 4750 50  0000 C CNN
F 2 "Resistor_SMD:R_0603_1608Metric" V 8930 4750 50  0001 C CNN
F 3 "~" H 9000 4750 50  0001 C CNN
	1    9000 4750
	0    1    1    0   
$EndComp
Wire Wire Line
	9150 4750 9200 4750
Wire Wire Line
	6500 4300 8000 4300
$Comp
L Device:R R?
U 1 1 62F25174
P 4350 4000
F 0 "R?" V 4143 4000 50  0000 C CNN
F 1 "R" V 4234 4000 50  0000 C CNN
F 2 "Resistor_SMD:R_0603_1608Metric" V 4280 4000 50  0001 C CNN
F 3 "~" H 4350 4000 50  0001 C CNN
	1    4350 4000
	0    1    1    0   
$EndComp
$Comp
L Device:R R?
U 1 1 62F256C0
P 4600 4200
F 0 "R?" V 4393 4200 50  0000 C CNN
F 1 "R" V 4484 4200 50  0000 C CNN
F 2 "Resistor_SMD:R_0603_1608Metric" V 4530 4200 50  0001 C CNN
F 3 "~" H 4600 4200 50  0001 C CNN
	1    4600 4200
	0    1    1    0   
$EndComp
Wire Wire Line
	5400 4200 4750 4200
Wire Wire Line
	5400 4000 4500 4000
Wire Wire Line
	4200 4000 4100 4000
Wire Wire Line
	4100 4000 4100 4100
Wire Wire Line
	4450 4200 4350 4200
$Comp
L power:GND #PWR?
U 1 1 62F2FD64
P 4100 4100
F 0 "#PWR?" H 4100 3850 50  0001 C CNN
F 1 "GND" H 4105 3927 50  0000 C CNN
F 2 "" H 4100 4100 50  0001 C CNN
F 3 "" H 4100 4100 50  0001 C CNN
	1    4100 4100
	1    0    0    -1  
$EndComp
$Comp
L power:GND #PWR?
U 1 1 62F30035
P 4350 4200
F 0 "#PWR?" H 4350 3950 50  0001 C CNN
F 1 "GND" H 4355 4027 50  0000 C CNN
F 2 "" H 4350 4200 50  0001 C CNN
F 3 "" H 4350 4200 50  0001 C CNN
	1    4350 4200
	1    0    0    -1  
$EndComp
$EndSCHEMATC
