EESchema Schematic File Version 4
EELAYER 30 0
EELAYER END
$Descr A4 11693 8268
encoding utf-8
Sheet 1 1
Title ""
Date ""
Rev ""
Comp ""
Comment1 ""
Comment2 ""
Comment3 ""
Comment4 ""
$EndDescr
$Comp
L Connector_Generic:Conn_02x07_Odd_Even J?
U 1 1 6E59A9F7
P 2050 3850
F 0 "J?" H 2100 4367 50  0000 C CNN
F 1 "Conn_02x07_Odd_Even" H 2100 4276 50  0000 C CNN
F 2 "" H 2050 3850 50  0001 C CNN
F 3 "~" H 2050 3850 50  0001 C CNN
	1    2050 3850
	1    0    0    -1  
$EndComp
$Comp
L Connector_Generic:Conn_02x07_Odd_Even J?
U 1 1 6E59B935
P 8250 3850
F 0 "J?" H 8300 4367 50  0000 C CNN
F 1 "Conn_02x07_Odd_Even" H 8300 4276 50  0000 C CNN
F 2 "" H 8250 3850 50  0001 C CNN
F 3 "~" H 8250 3850 50  0001 C CNN
	1    8250 3850
	1    0    0    -1  
$EndComp
Wire Wire Line
	2350 3850 2350 3900
Wire Wire Line
	8650 3850 8550 3850
Wire Wire Line
	1750 3800 1750 3850
Wire Wire Line
	1750 3850 1850 3850
Wire Wire Line
	2350 3750 2350 3650
Connection ~ 2350 3550
Wire Wire Line
	2350 3550 2350 3200
Connection ~ 2350 3650
Wire Wire Line
	2350 3650 2350 3550
Wire Wire Line
	1850 3750 1850 3650
Connection ~ 1850 3550
Wire Wire Line
	1850 3550 1850 3200
Connection ~ 1850 3650
Wire Wire Line
	1850 3650 1850 3550
Wire Wire Line
	1850 3950 1850 4050
Connection ~ 1850 4050
Wire Wire Line
	1850 4050 1850 4150
Connection ~ 1850 4150
Wire Wire Line
	1850 4150 1850 4500
Wire Wire Line
	2350 3950 2350 4050
Connection ~ 2350 4050
Wire Wire Line
	2350 4050 2350 4150
Connection ~ 2350 4150
Wire Wire Line
	2350 4150 2350 4500
$Comp
L power:GND #PWR?
U 1 1 6E5A568F
P 2350 4500
F 0 "#PWR?" H 2350 4250 50  0001 C CNN
F 1 "GND" H 2355 4327 50  0000 C CNN
F 2 "" H 2350 4500 50  0001 C CNN
F 3 "" H 2350 4500 50  0001 C CNN
	1    2350 4500
	1    0    0    -1  
$EndComp
$Comp
L power:GND #PWR?
U 1 1 6E5A5B89
P 1850 4500
F 0 "#PWR?" H 1850 4250 50  0001 C CNN
F 1 "GND" H 1855 4327 50  0000 C CNN
F 2 "" H 1850 4500 50  0001 C CNN
F 3 "" H 1850 4500 50  0001 C CNN
	1    1850 4500
	1    0    0    -1  
$EndComp
$Comp
L power:+24V #PWR?
U 1 1 6E5A5EB1
P 2350 3200
F 0 "#PWR?" H 2350 3050 50  0001 C CNN
F 1 "+24V" H 2365 3373 50  0000 C CNN
F 2 "" H 2350 3200 50  0001 C CNN
F 3 "" H 2350 3200 50  0001 C CNN
	1    2350 3200
	1    0    0    -1  
$EndComp
$Comp
L power:+24V #PWR?
U 1 1 6E5A6291
P 1850 3200
F 0 "#PWR?" H 1850 3050 50  0001 C CNN
F 1 "+24V" H 1865 3373 50  0000 C CNN
F 2 "" H 1850 3200 50  0001 C CNN
F 3 "" H 1850 3200 50  0001 C CNN
	1    1850 3200
	1    0    0    -1  
$EndComp
Text Label 2650 3800 0    50   ~ 0
canh
Text Label 2650 3900 0    50   ~ 0
canl
Wire Wire Line
	1750 3800 3500 3800
Wire Wire Line
	3500 3800 3500 3850
Wire Wire Line
	2350 3900 4000 3900
Wire Wire Line
	4000 3900 4000 3850
Wire Wire Line
	6100 3800 6100 3850
Connection ~ 3500 3800
Wire Wire Line
	6600 3900 6600 3850
Connection ~ 4000 3900
Wire Wire Line
	6100 3800 8050 3800
Wire Wire Line
	8050 3800 8050 3850
Wire Wire Line
	6600 3900 8650 3900
Wire Wire Line
	8650 3900 8650 3850
Wire Wire Line
	8050 3950 8050 4050
Connection ~ 8050 4050
Wire Wire Line
	8050 4050 8050 4150
Connection ~ 8050 4150
Wire Wire Line
	8050 4150 8050 4400
Wire Wire Line
	8550 3950 8550 4050
Connection ~ 8550 4050
Wire Wire Line
	8550 4050 8550 4150
Connection ~ 8550 4150
Wire Wire Line
	8550 4150 8550 4400
Wire Wire Line
	8050 3750 8050 3650
Connection ~ 8050 3550
Wire Wire Line
	8050 3550 8050 3200
Connection ~ 8050 3650
Wire Wire Line
	8050 3650 8050 3550
Wire Wire Line
	8550 3750 8550 3650
Connection ~ 8550 3550
Wire Wire Line
	8550 3550 8550 3200
Connection ~ 8550 3650
Wire Wire Line
	8550 3650 8550 3550
$Comp
L power:+24V #PWR?
U 1 1 6E5B5261
P 3500 3200
F 0 "#PWR?" H 3500 3050 50  0001 C CNN
F 1 "+24V" H 3515 3373 50  0000 C CNN
F 2 "" H 3500 3200 50  0001 C CNN
F 3 "" H 3500 3200 50  0001 C CNN
	1    3500 3200
	1    0    0    -1  
$EndComp
$Comp
L power:+24V #PWR?
U 1 1 6E5B56B3
P 4000 3200
F 0 "#PWR?" H 4000 3050 50  0001 C CNN
F 1 "+24V" H 4015 3373 50  0000 C CNN
F 2 "" H 4000 3200 50  0001 C CNN
F 3 "" H 4000 3200 50  0001 C CNN
	1    4000 3200
	1    0    0    -1  
$EndComp
$Comp
L power:+24V #PWR?
U 1 1 6E5B5A85
P 6100 3200
F 0 "#PWR?" H 6100 3050 50  0001 C CNN
F 1 "+24V" H 6115 3373 50  0000 C CNN
F 2 "" H 6100 3200 50  0001 C CNN
F 3 "" H 6100 3200 50  0001 C CNN
	1    6100 3200
	1    0    0    -1  
$EndComp
$Comp
L power:+24V #PWR?
U 1 1 6E5B5EA8
P 6600 3200
F 0 "#PWR?" H 6600 3050 50  0001 C CNN
F 1 "+24V" H 6615 3373 50  0000 C CNN
F 2 "" H 6600 3200 50  0001 C CNN
F 3 "" H 6600 3200 50  0001 C CNN
	1    6600 3200
	1    0    0    -1  
$EndComp
$Comp
L power:+24V #PWR?
U 1 1 6E5B6183
P 8050 3200
F 0 "#PWR?" H 8050 3050 50  0001 C CNN
F 1 "+24V" H 8065 3373 50  0000 C CNN
F 2 "" H 8050 3200 50  0001 C CNN
F 3 "" H 8050 3200 50  0001 C CNN
	1    8050 3200
	1    0    0    -1  
$EndComp
$Comp
L power:+24V #PWR?
U 1 1 6E5B6625
P 8550 3200
F 0 "#PWR?" H 8550 3050 50  0001 C CNN
F 1 "+24V" H 8565 3373 50  0000 C CNN
F 2 "" H 8550 3200 50  0001 C CNN
F 3 "" H 8550 3200 50  0001 C CNN
	1    8550 3200
	1    0    0    -1  
$EndComp
$Comp
L power:GND #PWR?
U 1 1 6E5B6A30
P 3500 4500
F 0 "#PWR?" H 3500 4250 50  0001 C CNN
F 1 "GND" H 3505 4327 50  0000 C CNN
F 2 "" H 3500 4500 50  0001 C CNN
F 3 "" H 3500 4500 50  0001 C CNN
	1    3500 4500
	1    0    0    -1  
$EndComp
$Comp
L power:GND #PWR?
U 1 1 6E5B6D86
P 4000 4500
F 0 "#PWR?" H 4000 4250 50  0001 C CNN
F 1 "GND" H 4005 4327 50  0000 C CNN
F 2 "" H 4000 4500 50  0001 C CNN
F 3 "" H 4000 4500 50  0001 C CNN
	1    4000 4500
	1    0    0    -1  
$EndComp
$Comp
L power:GND #PWR?
U 1 1 6E5B7076
P 6100 4500
F 0 "#PWR?" H 6100 4250 50  0001 C CNN
F 1 "GND" H 6105 4327 50  0000 C CNN
F 2 "" H 6100 4500 50  0001 C CNN
F 3 "" H 6100 4500 50  0001 C CNN
	1    6100 4500
	1    0    0    -1  
$EndComp
$Comp
L power:GND #PWR?
U 1 1 6E5B73DD
P 6600 4500
F 0 "#PWR?" H 6600 4250 50  0001 C CNN
F 1 "GND" H 6605 4327 50  0000 C CNN
F 2 "" H 6600 4500 50  0001 C CNN
F 3 "" H 6600 4500 50  0001 C CNN
	1    6600 4500
	1    0    0    -1  
$EndComp
$Comp
L power:GND #PWR?
U 1 1 6E5B7677
P 8050 4400
F 0 "#PWR?" H 8050 4150 50  0001 C CNN
F 1 "GND" H 8055 4227 50  0000 C CNN
F 2 "" H 8050 4400 50  0001 C CNN
F 3 "" H 8050 4400 50  0001 C CNN
	1    8050 4400
	1    0    0    -1  
$EndComp
$Comp
L power:GND #PWR?
U 1 1 6E5B7E36
P 8550 4400
F 0 "#PWR?" H 8550 4150 50  0001 C CNN
F 1 "GND" H 8555 4227 50  0000 C CNN
F 2 "" H 8550 4400 50  0001 C CNN
F 3 "" H 8550 4400 50  0001 C CNN
	1    8550 4400
	1    0    0    -1  
$EndComp
$Comp
L Device:CP C?
U 1 1 6E5C4915
P 2650 2750
F 0 "C?" H 2768 2796 50  0000 L CNN
F 1 "270uF" H 2768 2705 50  0000 L CNN
F 2 "Capacitor_THT:CP_Radial_D10.0mm_P5.00mm" H 2688 2600 50  0001 C CNN
F 3 "~" H 2650 2750 50  0001 C CNN
	1    2650 2750
	1    0    0    -1  
$EndComp
$Comp
L power:+24V #PWR?
U 1 1 6E5C5160
P 2650 2600
F 0 "#PWR?" H 2650 2450 50  0001 C CNN
F 1 "+24V" H 2665 2773 50  0000 C CNN
F 2 "" H 2650 2600 50  0001 C CNN
F 3 "" H 2650 2600 50  0001 C CNN
	1    2650 2600
	1    0    0    -1  
$EndComp
$Comp
L power:GND #PWR?
U 1 1 6E5C557B
P 2650 2900
F 0 "#PWR?" H 2650 2650 50  0001 C CNN
F 1 "GND" H 2655 2727 50  0000 C CNN
F 2 "" H 2650 2900 50  0001 C CNN
F 3 "" H 2650 2900 50  0001 C CNN
	1    2650 2900
	1    0    0    -1  
$EndComp
$Comp
L Device:CP C?
U 1 1 6E5C5BF2
P 3100 2750
F 0 "C?" H 3218 2796 50  0000 L CNN
F 1 "270uF" H 3218 2705 50  0000 L CNN
F 2 "Capacitor_THT:CP_Radial_D10.0mm_P5.00mm" H 3138 2600 50  0001 C CNN
F 3 "~" H 3100 2750 50  0001 C CNN
	1    3100 2750
	1    0    0    -1  
$EndComp
$Comp
L power:+24V #PWR?
U 1 1 6E5C5BF8
P 3100 2600
F 0 "#PWR?" H 3100 2450 50  0001 C CNN
F 1 "+24V" H 3115 2773 50  0000 C CNN
F 2 "" H 3100 2600 50  0001 C CNN
F 3 "" H 3100 2600 50  0001 C CNN
	1    3100 2600
	1    0    0    -1  
$EndComp
$Comp
L power:GND #PWR?
U 1 1 6E5C5BFE
P 3100 2900
F 0 "#PWR?" H 3100 2650 50  0001 C CNN
F 1 "GND" H 3105 2727 50  0000 C CNN
F 2 "" H 3100 2900 50  0001 C CNN
F 3 "" H 3100 2900 50  0001 C CNN
	1    3100 2900
	1    0    0    -1  
$EndComp
$Comp
L Device:CP C?
U 1 1 6E5C769E
P 7100 2800
F 0 "C?" H 7218 2846 50  0000 L CNN
F 1 "270uF" H 7218 2755 50  0000 L CNN
F 2 "Capacitor_THT:CP_Radial_D10.0mm_P5.00mm" H 7138 2650 50  0001 C CNN
F 3 "~" H 7100 2800 50  0001 C CNN
	1    7100 2800
	1    0    0    -1  
$EndComp
$Comp
L power:+24V #PWR?
U 1 1 6E5C76A4
P 7100 2650
F 0 "#PWR?" H 7100 2500 50  0001 C CNN
F 1 "+24V" H 7115 2823 50  0000 C CNN
F 2 "" H 7100 2650 50  0001 C CNN
F 3 "" H 7100 2650 50  0001 C CNN
	1    7100 2650
	1    0    0    -1  
$EndComp
$Comp
L power:GND #PWR?
U 1 1 6E5C76AA
P 7100 2950
F 0 "#PWR?" H 7100 2700 50  0001 C CNN
F 1 "GND" H 7105 2777 50  0000 C CNN
F 2 "" H 7100 2950 50  0001 C CNN
F 3 "" H 7100 2950 50  0001 C CNN
	1    7100 2950
	1    0    0    -1  
$EndComp
$Comp
L Device:CP C?
U 1 1 6E5C923D
P 7450 2800
F 0 "C?" H 7568 2846 50  0000 L CNN
F 1 "270uF" H 7568 2755 50  0000 L CNN
F 2 "Capacitor_THT:CP_Radial_D10.0mm_P5.00mm" H 7488 2650 50  0001 C CNN
F 3 "~" H 7450 2800 50  0001 C CNN
	1    7450 2800
	1    0    0    -1  
$EndComp
$Comp
L power:+24V #PWR?
U 1 1 6E5C9243
P 7450 2650
F 0 "#PWR?" H 7450 2500 50  0001 C CNN
F 1 "+24V" H 7465 2823 50  0000 C CNN
F 2 "" H 7450 2650 50  0001 C CNN
F 3 "" H 7450 2650 50  0001 C CNN
	1    7450 2650
	1    0    0    -1  
$EndComp
$Comp
L power:GND #PWR?
U 1 1 6E5C9249
P 7450 2950
F 0 "#PWR?" H 7450 2700 50  0001 C CNN
F 1 "GND" H 7455 2777 50  0000 C CNN
F 2 "" H 7450 2950 50  0001 C CNN
F 3 "" H 7450 2950 50  0001 C CNN
	1    7450 2950
	1    0    0    -1  
$EndComp
$Comp
L Connector_Generic:Conn_02x08_Odd_Even J?
U 1 1 62A239EC
P 3700 3850
F 0 "J?" H 3750 4367 50  0000 C CNN
F 1 "Conn_02x08_Odd_Even" H 3750 4276 50  0000 C CNN
F 2 "" H 3700 3850 50  0001 C CNN
F 3 "~" H 3700 3850 50  0001 C CNN
	1    3700 3850
	1    0    0    -1  
$EndComp
Wire Wire Line
	3500 3200 3500 3550
Wire Wire Line
	4000 3200 4000 3550
Wire Wire Line
	6100 3200 6100 3550
Wire Wire Line
	6600 3200 6600 3550
Wire Wire Line
	3500 3650 3500 3750
Wire Wire Line
	3500 4250 3500 4500
Wire Wire Line
	4000 4250 4000 4500
Wire Wire Line
	4000 3650 4000 3750
Wire Wire Line
	4000 3650 4000 3550
Connection ~ 4000 3650
Connection ~ 4000 3550
Wire Wire Line
	3500 3650 3500 3550
Connection ~ 3500 3650
Connection ~ 3500 3550
Connection ~ 3500 4250
Wire Wire Line
	3500 4050 3500 4150
Connection ~ 3500 4150
Wire Wire Line
	3500 4150 3500 4250
Connection ~ 4000 4250
Wire Wire Line
	4000 4050 4000 4150
Connection ~ 4000 4150
Wire Wire Line
	4000 4150 4000 4250
$Comp
L Connector_Generic:Conn_02x08_Odd_Even J?
U 1 1 62A2BA86
P 6300 3850
F 0 "J?" H 6350 4367 50  0000 C CNN
F 1 "Conn_02x08_Odd_Even" H 6350 4276 50  0000 C CNN
F 2 "" H 6300 3850 50  0001 C CNN
F 3 "~" H 6300 3850 50  0001 C CNN
	1    6300 3850
	1    0    0    -1  
$EndComp
Wire Wire Line
	6100 3650 6100 3750
Wire Wire Line
	6100 4250 6100 4500
Wire Wire Line
	6600 4250 6600 4500
Wire Wire Line
	6600 3650 6600 3750
Wire Wire Line
	6100 3650 6100 3550
Connection ~ 6100 3650
Connection ~ 6100 3550
Wire Wire Line
	6600 3650 6600 3550
Connection ~ 6600 3650
Connection ~ 6600 3550
Wire Wire Line
	6100 4250 6100 4150
Connection ~ 6100 4250
Connection ~ 6100 4150
Wire Wire Line
	6100 4150 6100 4050
Wire Wire Line
	6600 4250 6600 4150
Connection ~ 6600 4250
Connection ~ 6600 4150
Wire Wire Line
	6600 4150 6600 4050
$Comp
L Device:LED D?
U 1 1 62A331FE
P 3000 4300
F 0 "D?" V 3039 4182 50  0000 R CNN
F 1 "LED" V 2948 4182 50  0000 R CNN
F 2 "" H 3000 4300 50  0001 C CNN
F 3 "~" H 3000 4300 50  0001 C CNN
	1    3000 4300
	0    -1   -1   0   
$EndComp
$Comp
L Device:LED D?
U 1 1 62A33CB9
P 4400 4300
F 0 "D?" V 4439 4182 50  0000 R CNN
F 1 "LED" V 4348 4182 50  0000 R CNN
F 2 "" H 4400 4300 50  0001 C CNN
F 3 "~" H 4400 4300 50  0001 C CNN
	1    4400 4300
	0    -1   -1   0   
$EndComp
Wire Wire Line
	4000 3950 4400 3950
Wire Wire Line
	4400 3950 4400 4150
Wire Wire Line
	3500 3950 3000 3950
Wire Wire Line
	3000 3950 3000 4150
$Comp
L power:GND #PWR?
U 1 1 62A37B88
P 3000 4500
F 0 "#PWR?" H 3000 4250 50  0001 C CNN
F 1 "GND" H 3005 4327 50  0000 C CNN
F 2 "" H 3000 4500 50  0001 C CNN
F 3 "" H 3000 4500 50  0001 C CNN
	1    3000 4500
	1    0    0    -1  
$EndComp
$Comp
L power:GND #PWR?
U 1 1 62A37E78
P 4400 4500
F 0 "#PWR?" H 4400 4250 50  0001 C CNN
F 1 "GND" H 4405 4327 50  0000 C CNN
F 2 "" H 4400 4500 50  0001 C CNN
F 3 "" H 4400 4500 50  0001 C CNN
	1    4400 4500
	1    0    0    -1  
$EndComp
Wire Wire Line
	3000 4500 3000 4450
Wire Wire Line
	4400 4500 4400 4450
Wire Wire Line
	3500 3800 6100 3800
Connection ~ 6100 3800
Wire Wire Line
	4000 3900 6600 3900
Connection ~ 6600 3900
$Comp
L Device:LED D?
U 1 1 62A31AD3
P 5600 4300
F 0 "D?" V 5639 4182 50  0000 R CNN
F 1 "LED" V 5548 4182 50  0000 R CNN
F 2 "" H 5600 4300 50  0001 C CNN
F 3 "~" H 5600 4300 50  0001 C CNN
	1    5600 4300
	0    -1   -1   0   
$EndComp
Wire Wire Line
	5600 3950 5600 4150
$Comp
L power:GND #PWR?
U 1 1 62A31ADA
P 5600 4500
F 0 "#PWR?" H 5600 4250 50  0001 C CNN
F 1 "GND" H 5605 4327 50  0000 C CNN
F 2 "" H 5600 4500 50  0001 C CNN
F 3 "" H 5600 4500 50  0001 C CNN
	1    5600 4500
	1    0    0    -1  
$EndComp
Wire Wire Line
	5600 4500 5600 4450
$Comp
L Device:LED D?
U 1 1 62A3477C
P 6850 4300
F 0 "D?" V 6889 4182 50  0000 R CNN
F 1 "LED" V 6798 4182 50  0000 R CNN
F 2 "" H 6850 4300 50  0001 C CNN
F 3 "~" H 6850 4300 50  0001 C CNN
	1    6850 4300
	0    -1   -1   0   
$EndComp
Wire Wire Line
	6850 3950 6850 4150
$Comp
L power:GND #PWR?
U 1 1 62A34783
P 6850 4500
F 0 "#PWR?" H 6850 4250 50  0001 C CNN
F 1 "GND" H 6855 4327 50  0000 C CNN
F 2 "" H 6850 4500 50  0001 C CNN
F 3 "" H 6850 4500 50  0001 C CNN
	1    6850 4500
	1    0    0    -1  
$EndComp
Wire Wire Line
	6850 4500 6850 4450
Wire Wire Line
	5600 3950 6100 3950
Wire Wire Line
	6600 3950 6850 3950
$EndSCHEMATC
